{
	"get_all_indexes": "GET /_cat/indices",
	"get_specific_index": "GET /crm-data",
	"create_index": "PUT /crm-data {body}",
	"download_gitlab_crm": "curl -LkSs https://gitlab.com/amulyakashyap09/data-crm/-/archive/master/data-crm-master.zip -o /home/amullya/Downloads/data-crm-new-master.zip"
}